…
#### Introduce the data

``` r
instacart = 
  instacart %>% 
  as_tibble(instacart)

instacart
```

    ## # A tibble: 1,384,617 × 15
    ##    order_id product_id add_to_…¹ reord…² user_id eval_…³ order…⁴ order…⁵ order…⁶
    ##       <int>      <int>     <int>   <int>   <int> <chr>     <int>   <int>   <int>
    ##  1        1      49302         1       1  112108 train         4       4      10
    ##  2        1      11109         2       1  112108 train         4       4      10
    ##  3        1      10246         3       0  112108 train         4       4      10
    ##  4        1      49683         4       0  112108 train         4       4      10
    ##  5        1      43633         5       1  112108 train         4       4      10
    ##  6        1      13176         6       0  112108 train         4       4      10
    ##  7        1      47209         7       0  112108 train         4       4      10
    ##  8        1      22035         8       1  112108 train         4       4      10
    ##  9       36      39612         1       0   79431 train        23       6      18
    ## 10       36      19660         2       1   79431 train        23       6      18
    ## # … with 1,384,607 more rows, 6 more variables: days_since_prior_order <int>,
    ## #   product_name <chr>, aisle_id <int>, department_id <int>, aisle <chr>,
    ## #   department <chr>, and abbreviated variable names ¹​add_to_cart_order,
    ## #   ²​reordered, ³​eval_set, ⁴​order_number, ⁵​order_dow, ⁶​order_hour_of_day
…
In total, there are 39123 different products in 131209 different orders
from 131209 different users.

#### answer the questions

count aisles

``` r
instacart %>% 
  count(aisle) %>% 
  arrange(desc(n))
```

    ## # A tibble: 134 × 2
    ##    aisle                              n
    ##    <chr>                          <int>
    ##  1 fresh vegetables              150609
    ##  2 fresh fruits                  150473
    ##  3 packaged vegetables fruits     78493
    ##  4 yogurt                         55240
    ##  5 packaged cheese                41699
    ##  6 water seltzer sparkling water  36617
    ##  7 milk                           32644
    ##  8 chips pretzels                 31269
    ##  9 soy lactosefree                26240
    ## 10 bread                          23635
    ## # … with 124 more rows
…
acc_data
```

    ## # A tibble: 50,400 × 6
    ##     week   day day_of_the_week minute_from_midnight activity_counts weekday_vs…¹
    ##    <int> <int> <chr>                          <dbl>           <dbl> <chr>       
    ##  1     1     1 Friday                             1            88.4 weekday     
    ##  2     1     1 Friday                             2            82.2 weekday     
    ##  3     1     1 Friday                             3            64.4 weekday     
    ##  4     1     1 Friday                             4            70.0 weekday     
    ##  5     1     1 Friday                             5            75.0 weekday     
    ##  6     1     1 Friday                             6            66.3 weekday     
    ##  7     1     1 Friday                             7            53.8 weekday     
    ##  8     1     1 Friday                             8            47.8 weekday     
    ##  9     1     1 Friday                             9            55.5 weekday     
    ## 10     1     1 Friday                            10            43.0 weekday     
    ## # … with 50,390 more rows, and abbreviated variable name ¹​weekday_vs_weekend
…
